27
bd
ff
c8
af
bf
00
34
af
be
00
30
03
a0
f0
21
24
02
00
0c
af
c2
00
10
24
02
00
09
af
c2
00
14
24
02
00
04
af
c2
00
18
24
02
00
63
af
c2
00
1c
24
02
00
78
af
c2
00
20
24
02
00
01
af
c2
00
24
24
02
00
03
af
c2
00
28
24
02
00
0a
af
c2
00
2c
27
c2
00
10
00
40
20
21
24
05
00
08
0c
00
80
20
00
00
00
00
00
00
10
21
03
c0
e8
21
8f
bf
00
34
8f
be
00
30
27
bd
00
38
03
e0
00
08
00
00
00
00
27
bd
ff
e8
af
be
00
14
03
a0
f0
21
af
c4
00
18
af
c5
00
1c
af
c0
00
00
08
00
80
5f
00
00
00
00
24
02
00
01
af
c2
00
04
08
00
80
55
00
00
00
00
8f
c2
00
04
24
42
ff
ff
00
02
10
80
8f
c3
00
18
00
62
10
21
8c
43
00
00
8f
c2
00
04
00
02
10
80
8f
c4
00
18
00
82
10
21
8c
42
00
00
00
43
10
2a
10
40
00
19
00
00
00
00
8f
c2
00
04
24
42
ff
ff
00
02
10
80
8f
c3
00
18
00
62
10
21
8c
42
00
00
af
c2
00
08
8f
c2
00
04
24
42
ff
ff
00
02
10
80
8f
c3
00
18
00
62
10
21
8f
c3
00
04
00
03
18
80
8f
c4
00
18
00
83
18
21
8c
63
00
00
ac
43
00
00
8f
c2
00
04
00
02
10
80
8f
c3
00
18
00
62
10
21
8f
c3
00
08
ac
43
00
00
8f
c2
00
04
24
42
00
01
af
c2
00
04
8f
c3
00
1c
8f
c2
00
00
00
62
18
23
8f
c2
00
04
00
43
10
2a
14
40
ff
d1
00
00
00
00
8f
c2
00
00
24
42
00
01
af
c2
00
00
8f
c3
00
00
8f
c2
00
1c
00
62
10
2a
14
40
ff
c5
00
00
00
00
03
c0
e8
21
8f
be
00
14
27
bd
00
18
03
e0
00
08
00
00
00
00
