27
bd
ff
d8
af
be
00
24
03
a0
f0
21
af
c0
00
00
af
c0
00
04
3c
02
80
02
8c
45
01
9c
24
43
01
9c
8c
64
00
04
24
43
01
9c
8c
63
00
08
af
c5
00
08
af
c4
00
0c
af
c3
00
10
24
42
01
9c
90
42
00
0c
a3
c2
00
14
a3
c0
00
15
a3
c0
00
16
a3
c0
00
17
a3
c0
00
18
a3
c0
00
19
a3
c0
00
1a
a3
c0
00
1b
af
c0
00
00
08
00
80
5d
00
00
00
00
8f
c2
00
00
03
c2
10
21
90
43
00
08
24
02
00
61
10
62
00
37
00
00
00
00
8f
c2
00
00
03
c2
10
21
90
43
00
08
24
02
00
41
10
62
00
31
00
00
00
00
8f
c2
00
00
03
c2
10
21
90
43
00
08
24
02
00
65
10
62
00
2b
00
00
00
00
8f
c2
00
00
03
c2
10
21
90
43
00
08
24
02
00
45
10
62
00
25
00
00
00
00
8f
c2
00
00
03
c2
10
21
90
43
00
08
24
02
00
69
10
62
00
1f
00
00
00
00
8f
c2
00
00
03
c2
10
21
90
43
00
08
24
02
00
49
10
62
00
19
00
00
00
00
8f
c2
00
00
03
c2
10
21
90
43
00
08
24
02
00
6f
10
62
00
13
00
00
00
00
8f
c2
00
00
03
c2
10
21
90
43
00
08
24
02
00
4f
10
62
00
0d
00
00
00
00
8f
c2
00
00
03
c2
10
21
90
43
00
08
24
02
00
75
10
62
00
07
00
00
00
00
8f
c2
00
00
03
c2
10
21
90
43
00
08
24
02
00
55
14
62
00
04
00
00
00
00
8f
c2
00
04
24
42
00
01
af
c2
00
04
8f
c2
00
00
24
42
00
01
af
c2
00
00
8f
c2
00
00
28
42
00
14
14
40
ff
bb
00
00
00
00
00
00
10
21
03
c0
e8
21
8f
be
00
24
27
bd
00
28
03
e0
00
08
00
00
00
00
43
68
65
63
6b
56
6f
77
65
6c
21
0a
00
00
00
00
00
00
00
00
