27
bd
ff
d0
af
bf
00
2c
af
be
00
28
03
a0
f0
21
24
02
00
05
af
c2
00
1c
24
02
00
09
af
c2
00
20
a7
c0
00
10
8f
c2
00
20
00
02
10
80
af
c2
00
20
8f
c2
00
1c
00
02
10
43
af
c2
00
1c
8f
c2
00
1c
30
43
ff
ff
8f
c2
00
20
30
42
ff
ff
70
62
10
02
30
42
ff
ff
00
02
14
00
00
02
14
03
30
42
00
ff
a7
c2
00
10
27
c2
00
1c
af
c2
00
14
27
c2
00
20
af
c2
00
18
8f
c4
00
14
8f
c5
00
18
0c
00
80
4c
00
00
00
00
8f
c2
00
14
8c
42
00
00
af
c2
00
1c
8f
c2
00
18
8c
42
00
00
af
c2
00
20
8f
c4
00
14
8f
c5
00
18
0c
00
80
34
00
00
00
00
8f
c3
00
1c
8f
c2
00
20
00
62
10
21
03
c0
e8
21
8f
bf
00
2c
8f
be
00
28
27
bd
00
30
03
e0
00
08
00
00
00
00
27
bd
ff
f8
af
be
00
04
03
a0
f0
21
af
c4
00
08
af
c5
00
0c
8f
c2
00
0c
8c
42
00
00
10
40
00
0b
00
00
00
00
8f
c2
00
08
8c
43
00
00
8f
c2
00
0c
8c
42
00
00
00
62
00
1a
00
00
18
10
00
00
10
12
00
40
18
21
8f
c2
00
08
ac
43
00
00
03
c0
e8
21
8f
be
00
04
27
bd
00
08
03
e0
00
08
00
00
00
00
27
bd
ff
f0
af
be
00
0c
03
a0
f0
21
af
c4
00
10
af
c5
00
14
8f
c2
00
10
8c
42
00
00
af
c2
00
00
8f
c2
00
14
8c
43
00
00
8f
c2
00
10
ac
43
00
00
8f
c2
00
14
8f
c3
00
00
ac
43
00
00
03
c0
e8
21
8f
be
00
0c
27
bd
00
10
03
e0
00
08
00
00
00
00
