27
bd
ff
a0
af
be
00
5c
03
a0
f0
21
af
c0
00
00
af
c0
00
04
af
c0
00
00
08
00
80
15
00
00
00
00
8f
c2
00
00
24
43
00
01
8f
c2
00
00
00
02
10
80
03
c2
10
21
ac
43
00
08
8f
c2
00
00
00
02
10
80
03
c2
10
21
ac
40
00
30
8f
c2
00
00
24
42
00
01
af
c2
00
00
8f
c2
00
00
28
42
00
0a
14
40
ff
f0
00
00
00
00
af
c0
00
00
08
00
80
36
00
00
00
00
8f
c2
00
00
00
02
10
80
03
c2
10
21
8c
43
00
08
8f
c2
00
00
00
02
10
80
03
c2
10
21
8c
42
00
08
00
62
00
1a
00
00
18
10
00
00
10
12
00
40
18
21
8f
c2
00
00
00
02
10
80
03
c2
10
21
ac
43
00
30
8f
c2
00
00
00
02
10
80
03
c2
10
21
8c
42
00
30
8f
c3
00
04
00
62
10
21
af
c2
00
04
8f
c2
00
00
24
42
00
01
af
c2
00
00
8f
c2
00
00
28
42
00
0a
14
40
ff
e3
00
00
00
00
8f
c2
00
04
03
c0
e8
21
8f
be
00
5c
27
bd
00
60
03
e0
00
08
00
00
00
00
