27
bd
ff
e0
af
bf
00
1c
af
be
00
18
03
a0
f0
21
af
c0
00
10
08
00
80
0e
00
00
00
00
8f
c4
00
10
0c
00
80
19
00
00
00
00
af
c2
00
14
8f
c2
00
10
24
42
00
01
af
c2
00
10
8f
c2
00
10
28
42
00
0a
14
40
ff
f6
00
00
00
00
00
00
10
21
03
c0
e8
21
8f
bf
00
1c
8f
be
00
18
27
bd
00
20
03
e0
00
08
00
00
00
00
27
bd
ff
e8
af
bf
00
14
af
be
00
10
03
a0
f0
21
af
c4
00
18
8f
c2
00
18
14
40
00
04
00
00
00
00
24
02
00
01
08
00
80
2c
00
00
00
00
8f
c2
00
18
24
42
ff
ff
00
40
20
21
0c
00
80
19
00
00
00
00
00
40
18
21
8f
c2
00
18
70
62
10
02
03
c0
e8
21
8f
bf
00
14
8f
be
00
10
27
bd
00
18
03
e0
00
08
00
00
00
00
