27
bd
ff
e8
af
be
00
14
03
a0
f0
21
24
02
00
03
af
c2
00
00
24
02
00
02
af
c2
00
04
af
c0
00
08
8f
c2
00
00
28
42
00
05
10
40
00
07
00
00
00
00
8f
c3
00
00
8f
c2
00
04
00
62
10
21
af
c2
00
00
08
00
80
16
00
00
00
00
8f
c3
00
00
8f
c2
00
04
00
62
10
23
af
c2
00
00
8f
c3
00
00
8f
c2
00
04
00
62
10
21
af
c2
00
08
8f
c2
00
08
03
c0
e8
21
8f
be
00
14
27
bd
00
18
03
e0
00
08
00
00
00
00
