27
bd
ff
c8
af
be
00
34
03
a0
f0
21
af
c0
00
00
af
c0
00
04
af
c0
00
00
08
00
80
10
00
00
00
00
8f
c2
00
00
00
02
10
80
03
c2
10
21
8f
c3
00
00
ac
43
00
08
8f
c2
00
00
24
42
00
01
af
c2
00
00
8f
c2
00
00
28
42
00
0a
14
40
ff
f5
00
00
00
00
af
c0
00
00
08
00
80
21
00
00
00
00
8f
c2
00
00
00
02
10
80
03
c2
10
21
8c
42
00
08
8f
c3
00
04
00
62
10
21
af
c2
00
04
8f
c2
00
00
24
42
00
01
af
c2
00
00
8f
c2
00
00
28
42
00
0a
14
40
ff
f3
00
00
00
00
8f
c2
00
04
03
c0
e8
21
8f
be
00
34
27
bd
00
38
03
e0
00
08
00
00
00
00
