27
bd
ff
d8
af
bf
00
24
af
be
00
20
03
a0
f0
21
24
02
00
05
af
c2
00
18
24
02
00
09
af
c2
00
1c
27
c2
00
18
af
c2
00
10
27
c2
00
1c
af
c2
00
14
8f
c4
00
10
8f
c5
00
14
0c
00
80
1f
00
00
00
00
8f
c2
00
10
8c
42
00
00
af
c2
00
18
8f
c2
00
14
8c
42
00
00
af
c2
00
1c
8f
c3
00
18
8f
c2
00
1c
00
62
10
21
03
c0
e8
21
8f
bf
00
24
8f
be
00
20
27
bd
00
28
03
e0
00
08
00
00
00
00
27
bd
ff
f0
af
be
00
0c
03
a0
f0
21
af
c4
00
10
af
c5
00
14
8f
c2
00
10
8c
42
00
00
af
c2
00
00
8f
c2
00
14
8c
43
00
00
8f
c2
00
10
ac
43
00
00
8f
c2
00
14
8f
c3
00
00
ac
43
00
00
03
c0
e8
21
8f
be
00
0c
27
bd
00
10
03
e0
00
08
00
00
00
00
